-16 80 -8 16 -24 808
-32 32 -16 24 -16 -16 -32 -24 -40 -24 -8 -24 608
-24 32 -40 -24 -32 -16 776
32 -16 -40 -40 -24 -32 -40 -8 -8 -32 -16 -16 -8 576
-8 -16 32 -8 -40 848
160 -8 -24 -8 -40 -24 -40 632
-32 120 -16 -40 -40 -24 -8 -16 632
40 -40 8 -8 -40 -32 -24 -16 -24 -24 656
-16 8 -16 -16 -8 -40 -40 -40 -8 -40 680
-16 -16 8 -40 -24 -24 -16 -24 -32 -16 -8 680
