-40 -64 -24 -16 -32 776
-32 -24 920
24 -32 -32 -16 -48 -32 760
-40 -24 -64 -40 -48 -40 -24 -32 616
-16 -40 8 -40 -24 824
-24 8 -40 -32 -48 -24 -32 728
-48 -32 -24 -24 -24 -32 -40 -48 -56 -56 528
16 -24 -32 -24 -32 -40 -40 -48 -72 -64 -56 -24 424
-24 -32 -40 -64 -40 -40 704
-32 -48 -56 832
-64 -64 -24 -16 -32 752
-64 -32 -48 -24 -40 744
-56 -48 -40 -48 -40 -24 688
16 -24 -32 -48 -48 784
-48 -64 -48 808
